[
  {
    "name": "Плоскогубцы комбинированные Spark Lux ",
    "desc": "Плоскогубцы комбинированные — шарнирно-губцевый инструмент, предназначен для проведения широкого спектра слесарных и монтажных работ. Инструмент изготовлен из хромованадиевой стали, кованой и закаленной в масле. Рабочие части инструмента имеют антикоррозионное покрытие. Эргономичная форма рукояток обеспечивает надежный и удобный хват.",
    "image": "../images/flowers/1.png",
    "event": "",
    "price": 40
  },
  {
    "name": "Ключ разводной Spark Lux 8*",
    "desc": "Представленная модель изделия изготовлена из высокопрочной и качественной хромованадиевой стали, что повышает надежность выполнения работ. Особая эргономичная двухкомпонентная рукоятка гарантирует надежное схватывание инструмента, что повышает удобство и качество выполнения работы.",
    "image": "../images/flowers/9.png",
    "event": "",
    "price": 120
  },
  {
    "name": "Клещи переставные Spark Lux",
    "desc": "Клещи переставные представляют собой весьма долговечный инструмент, который подходит для осуществления тяжелых работ: 1. Поверхность губок и режущие кромки дополнительно закалены токами высокой частоты для увеличения ресурса, 2. Хромированное покрытие головы для защиты от механических повреждений предотвращения коррозии, 3. Эргономичные двухкомпонентные противоскользящие рукоятки создают максимальное удобство при работе.",
    "image": "../images/flowers/1.png",
    "event": "",
    "price": 60
  },
  {
    "name": "Диск абразивный отрезной Spark Lux",
    "desc": "Диск отрезной по металлу оптимально подойдет для резки металлоконструкций и изделий. Размеры: Внешний диаметр — 180 мм, толщина — 1,6 мм, посадочное",
    "image": "../images/flowers/1.png",
    "event": "",
    "price": 50
  },
  {
    "name": "Нож универсальный Spark Lux",
    "desc": "Предназначен для резки различных материалов: картон, линолеум, кожа и т.д. Нож складной, со сменными трапециевидными лезвиями.",
    "image": "../images/flowers/6.png",
    "event": "",
    "price": 144
  },
  {
    "name": "Набор сверл по металлу Spark Lux, МЕТ-ВП, 19 шт",
    "desc": "Сверла из быстрорежущей стали предназначены для обработки конструкционных сталей, цветных металлов и других материалов.",
    "image": "../images/flowers/15.png",
    "event": "",
    "price": 30
  },
  {
    "name": "Выжагатель Spark Lux, с набором насадок",
    "desc": "Набор паяльник-выжигатель с 6 насадками — отличное решение для тех, кто стремится по максимуму использовать полезные приборы. Он станет надежным помощником как для любителя, так и для профессионала. Суть работы паяльников и выжигателей по дереву очень схожа, на этом и основано действие прибора.",
    "image": "../images/flowers/20.png",
    "event": "",
    "price": 50
  },
  {
    "name": "Электропаяльник Spark Lux, 60 Вт",
    "desc": "Электропаяльник Spark Lux изготовлен для установки и демонтажа разнообразных металлических деталей на печатные платы при помощи припоя. Рекомендуется воздерживаться от прикосновений к нагревательному элементу в процессе работы. Паяльник снабжен прочным и высококачественным жалом в форме клина и эргономичной пластиковой рукояткой",
    "image": "../images/flowers/21.png",
    "event": "",
    "price": 60
  },
  {
    "name": "Удлинитель сетевой Spark Lux",
    "desc": "Удлинитель сетевой — электротехнические устройство, предназначенное для подключения нескольких электроприборов в местах, удалённых от стационарных розеток.",
    "image": "../images/flowers/23.png",
    "event": "",
    "price": 48
  },
  {
    "name": "Диск алмазный Spark Lux",
    "desc": "Диск используется при сухой резке бетона, железобетона, мрамора. Благодаря наличию «прорезей» сегментов в диске процесс обработки осуществляется с эффективным выбросом продуктов резания",
    "image": "../images/flowers/27.png",
    "event": "",
    "price": 200
  },

  {
    "name": "Биты кованные Spark Lux",
    "desc": "Биты Spark Lux используются для роботы с крежными элементами и предназначены для индустриального и бытового применения",
    "image": "../images/flowers/28.png",
    "event": "",
    "price": 60
  },
  {
    "name": "Биты крестовые кованные Spark Lux",
    "desc": "В качестве материала используется кованая легированная сталь с наличием в своей структуре хрома и молибдена, вследствие чего значительно повышается долговечность и устойчивость к коррозии. Торсионная зона специальной формы, препятствует разрушению наконечника при максимальных нагрузках.",
    "image": "../images/flowers/30.png",
    "event": "",
    "price": 1000
  },
  {
    "name": "Отвертка Spark Lux 90 градусов",
    "desc": "Отвертка плоская или шлиц, используется для завинчивания и отвинчивания крепёжных изделий с резьбой, чаще всего винтов и шурупов, на головке которых имеется шлиц (паз).",
    "image": "../images/flowers/34.png",
    "event": "",
    "price": 240
  },
  {
    "name": "Отвертка Spark Lux",
    "desc": "Отвертка плоская или шлиц, используется для завинчивания и отвинчивания крепёжных изделий с резьбой, чаще всего винтов и шурупов, на головке которых имеется шлиц (паз).",
    "image": "../images/flowers/35.png",
    "event": "",
    "price": 240
  },
  {
    "name": "Отвертка Spark Lux удар Большой",
    "desc": "Отвертка плоская или шлиц, используется для завинчивания и отвинчивания крепёжных изделий с резьбой, чаще всего винтов и шурупов, на головке которых имеется шлиц (паз).    ",
    "image": "../images/flowers/36.png",
    "event": "",
    "price": 240
  },
  {
    "name": "Набор отверток",
    "desc": "Отвертки плоские или шлиц, используется для завинчивания и отвинчивания крепёжных изделий с резьбой, чаще всего винтов и шурупов, на головке которых имеется шлиц (паз).",
    "image": "../images/flowers/40.png",
    "event": "",
    "price": 120
  },
  {
    "name": "Ключ трещётка. Размер: 6,8,10",
    "desc": "Ключ трещётка является простым в применении ручным инструментом, который предназначен для работы с резьбовыми соединениями. Конструкция изготовлен из хромванадиевой стали, которая отличается повышенной твердостью. Есть размеры 6,8 и 10",
    "image": "../images/flowers/43.png",
    "event": "",
    "price": 40
  },
  {
    "name": "Плоскогубцы Spark Lux",
    "desc": "Плоскогубцы — шарнирно-губцевый инструмент, предназначен для проведения широкого спектра слесарных и монтажных работ. Инструмент изготовлен из хромованадиевой стали, кованой и закаленной в масле. Рабочие части инструмента имеют антикоррозионное покрытие. Эргономичная форма рукояток обеспечивает надежный и удобный хват.",
    "image": "../images/flowers/45.png",
    "event": "",
    "price": 120
  },

  {
    "name": "Монтажный клей Spark Lux",
    "desc": "Terraflex представляет собой универсальный высококачественный однокомпонентный строительный монтажный клей, предназначенный для быстрого и прочного склеивания различных материалов и конструкций.",
    "image": "../images/flowers/24.png",
    "event": "",
    "price": 0
  },
  {
    "name": "Пена Spark Lux, TFX 65",
    "desc": "Монтажная пена — предназначенная для герметизации швов, заполнения пустот и монтажа коммуникаций. Состав используют при положительной температуре воздуха.",
    "image": "../images/flowers/25.png",
    "event": "",
    "price": 15
  },
  {
    "name": "Диск пильный Spark Lux",
    "desc": "Диск пильный является профессиональным расходным материалом для циркулярной пилы. Он предназначен для выполнения быстрых пропилов различного направления, как продольных, так и поперечных, в таких материалах, как мягкая и твердая древесина, фанера и ДСП. Пильный диск по дереву изготовлен из инструментальной стали высокого качества, а каждый из его твердосплавных зубьев был подвержен трехгранной шлифовке и автоматической заточке с трех сторон, что является гарантией их правильной геометрии, а также длительного срока службы изделия в целом.",
    "image": "../images/flowers/26.png",
    "event": "",
    "price": 200
  },
  {
    "name": "Биты крестовые PH2 кованые с ограничителем для гипсокартона",
    "desc": "Крестовые биты используются для работы с крепежными элементами и предназначены для индустриального и бытового применения. В качестве материала используется кованая легированная сталь с наличием в своей структуре хрома и молибдена, вследствие чего значительно повышается долговечность и устойчивость к коррозии.",
    "image": "../images/flowers/29.png",
    "event": "",
    "price": 600
  },
  {
    "name": "Отвертка Spark Lux черный",
    "desc": "Отвертка плоская или шлиц, используется для завинчивания и отвинчивания крепёжных изделий с резьбой, чаще всего винтов и шурупов, на головке которых имеется шлиц (паз).",
    "image": "../images/flowers/38.png",
    "event": "",
    "price": 240
  },
  {
    "name": "Решетка вентиляционная",
    "desc": "Пластиковое изделие, устанавливаемое на отверстия воздуховодов. Данную решетку необходимо купить для выполнения двух основных функций: для эстетичного оформления интерьера и защитного отделения вентиляционного канала от внутреннего пространства помещения",
    "image": "../images/flowers/41.png",
    "event": "",
    "price": 300
  },
  {
    "name": "Заклепочный пистолет, боковой",
    "desc": "Используется для фиксации тонких листовых металлических конструкций алюминиевыми заклепками",
    "image": "../images/flowers/46.png",
    "event": "",
    "price": 24
  },
  {
    "name": "Рулетка Spark Lux, автоматическая фиксация, 5 м",
    "desc": "Рулетка имеет обрезиненный корпус, металлическая лента используется при проведении измерительных работ.",
    "image": "../images/flowers/3.png",
    "event": "",
    "price": 120
  },
  {
    "name": "Секатор садовый Spark Lux, 230 мм, золотистый",
    "desc": "Секатор садовый SPARK LUX — надежный помощник для работ на дачном участке. С помощью инструмента срезают цветы, обрезают ветки диаметром до 25 мм, прореживают ягодные кустарники и виноград.",
    "image": "../images/flowers/4.png",
    "event": "",
    "price": 72
  },
  {
    "name": "Нитка строительная белaя",
    "desc": "Отвертки плоские или шлиц, используется для завинчивания и отвинчивания крепёжных изделий с резьбой, чаще всего винтов и шурупов, на головке которых имеется шлиц (паз).",
    "image": "../images/flowers/7.png",
    "event": "",
    "price": 120
  },
  {
    "name": "Строительная серпянка Spark Lux, 80mm 90m",
    "desc": "Строительная серпянка — армирующий материал, требующийся для укрепления поверхностей: 1. стыков меж листами гипсокартона и прочих материалов,2. участков примыкания стен к потолкам,3. мест соединения панелей,4. стыков меж стенами и дверными, оконными коробами,5. трещиноватых стен и потолков",
    "image": "../images/flowers/8.png",
    "event": "",
    "price": 32
  },
  {
    "name": "Рулетка Spark Lux, автоматическая фиксация, 10 м",
    "desc": "Рулетка имеет обрезиненный корпус, металлическая лента используется при проведении измерительных работ.",
    "image": "../images/flowers/10.png",
    "event": "",
    "price": 60
  }
]
